{
  "data": [
    {
      "participant": {
        "brand": "MyBank Brand",
        "name": "MyBank Institution",
        "cnpjNumber": "12345678901234",
        "urlComplementaryList": "https://www.mybank.com/complementarylist"
      },
      "fees": {
        "services": [
          {
            "name": "CONCESSAO_ADIANTAMENTO_DEPOSITANTE",
            "code": "ADIANT_DEPOSITANTE",
            "chargingTriggerInfo": "Exceeding the special check limit.",
            "prices": [
              {
                "interval": "1_FAIXA",
                "value": "50.00",
                "currency": "BRL",
                "customers": {
                  "rate": "0.050000"
                }
              },
              {
                "interval": "2_FAIXA",
                "value": "75.00",
                "currency": "BRL",
                "customers": {
                  "rate": "0.100000"
                }
              },
              {
                "interval": "3_FAIXA",
                "value": "100.00",
                "currency": "BRL",
                "customers": {
                  "rate": "0.150000"
                }
              },
              {
                "interval": "4_FAIXA",
                "value": "150.00",
                "currency": "BRL",
                "customers": {
                  "rate": "0.200000"
                }
              }
            ],
            "minimum": {
              "value": "40.00",
              "currency": "BRL"
            },
            "maximum": {
              "value": "160.00",
              "currency": "BRL"
            }
          },
          {
            "name": "CONCESSAO_ADIANTAMENTO_DEPOSITANTE",
            "code": "ADIANT_DEPOSITANTE",
            "chargingTriggerInfo": "Another charging trigger example for overdraft service.",
            "prices": [
              {
                "interval": "1_FAIXA",
                "value": "60.00",
                "currency": "BRL",
                "customers": {
                  "rate": "0.060000"
                }
              },
              {
                "interval": "2_FAIXA",
                "value": "85.00",
                "currency": "BRL",
                "customers": {
                  "rate": "0.110000"
                }
              },
              {
                "interval": "3_FAIXA",
                "value": "110.00",
                "currency": "BRL",
                "customers": {
                  "rate": "0.160000"
                }
              },
              {
                "interval": "4_FAIXA",
                "value": "160.00",
                "currency": "BRL",
                "customers": {
                  "rate": "0.210000"
                }
              }
            ],
            "minimum": {
              "value": "50.00",
              "currency": "BRL"
            },
            "maximum": {
              "value": "170.00",
              "currency": "BRL"
            }
          }
        ]
      },
      "interestRates": [
        {
          "referentialRateIndexer": "SEM_INDEXADOR_TAXA",
          "rate": "0.000000",
          "applications": [
            {
              "interval": "1_FAIXA",
              "indexer": {
                "rate": "0.010000"
              },
              "customers": {
                "rate": "0.250000"
              }
            },
            {
              "interval": "2_FAIXA",
              "indexer": {
                "rate": "0.020000"
              },
              "customers": {
                "rate": "0.300000"
              }
            },
            {
              "interval": "3_FAIXA",
              "indexer": {
                "rate": "0.030000"
              },
              "customers": {
                "rate": "0.350000"
              }
            },
            {
              "interval": "4_FAIXA",
              "indexer": {
                "rate": "0.040000"
              },
              "customers": {
                "rate": "0.400000"
              }
            }
          ],
          "minimumRate": "0.010000",
          "maximumRate": "0.500000"
        },
        {
          "referentialRateIndexer": "POS_FIXADO_CDI",
          "rate": "0.950000",
          "applications": [
            {
              "interval": "1_FAIXA",
              "indexer": {
                "rate": "0.015000"
              },
              "customers": {
                "rate": "0.200000"
              }
            },
            {
              "interval": "2_FAIXA",
              "indexer": {
                "rate": "0.025000"
              },
              "customers": {
                "rate": "0.250000"
              }
            },
            {
              "interval": "3_FAIXA",
              "indexer": {
                "rate": "0.035000"
              },
              "customers": {
                "rate": "0.300000"
              }
            },
            {
              "interval": "4_FAIXA",
              "indexer": {
                "rate": "0.045000"
              },
              "customers": {
                "rate": "0.350000"
              }
            }
          ],
          "minimumRate": "0.020000",
          "maximumRate": "0.600000"
        }
      ],
      "termsConditions": "https://www.mybank.com/business_overdraft_terms"
    },
    {
      "participant": {
        "brand": "MyBank Brand",
        "name": "MyBank Subsidiary",
        "cnpjNumber": "98765432109876",
        "urlComplementaryList": "https://www.mybank.com/subsidiary_complementarylist"
      },
      "fees": {
        "services": [
          {
            "name": "CONCESSAO_ADIANTAMENTO_DEPOSITANTE",
            "code": "ADIANT_DEPOSITANTE",
            "chargingTriggerInfo": "Using overdraft facility.",
            "prices": [
              {
                "interval": "1_FAIXA",
                "value": "55.00",
                "currency": "BRL",
                "customers": {
                  "rate": "0.055000"
                }
              },
              {
                "interval": "2_FAIXA",
                "value": "80.00",
                "currency": "BRL",
                "customers": {
                  "rate": "0.110000"
                }
              },
              {
                "interval": "3_FAIXA",
                "value": "105.00",
                "currency": "BRL",
                "customers": {
                  "rate": "0.155000"
                }
              },
              {
                "interval": "4_FAIXA",
                "value": "155.00",
                "currency": "BRL",
                "customers": {
                  "rate": "0.205000"
                }
              }
            ],
            "minimum": {
              "value": "45.00",
              "currency": "BRL"
            },
            "maximum": {
              "value": "165.00",
              "currency": "BRL"
            }
          }
        ]
      },
      "interestRates": [
        {
          "referentialRateIndexer": "PRE_FIXADO",
          "rate": "0.120000",
          "applications": [
            {
              "interval": "1_FAIXA",
              "indexer": {
                "rate": "0.012000"
              },
              "customers": {
                "rate": "0.270000"
              }
            },
            {
              "interval": "2_FAIXA",
              "indexer": {
                "rate": "0.022000"
              },
              "customers": {
                "rate": "0.320000"
              }
            },
            {
              "interval": "3_FAIXA",
              "indexer": {
                "rate": "0.032000"
              },
              "customers": {
                "rate": "0.370000"
              }
            },
            {
              "interval": "4_FAIXA",
              "indexer": {
                "rate": "0.042000"
              },
              "customers": {
                "rate": "0.420000"
              }
            }
          ],
          "minimumRate": "0.012000",
          "maximumRate": "0.520000"
        }
      ],
      "termsConditions": "https://www.mybank.com/business_overdraft_terms_v2"
    }
  ],
  "links": {
    "self": "https://api.mybank.com/open-banking/opendata-unarranged/v1/business-unarranged-account-overdraft",
    "first": "https://api.mybank.com/open-banking/opendata-unarranged/v1/business-unarranged-account-overdraft?page=1&page-size=25",
    "prev": null,
    "next": "https://api.mybank.com/open-banking/opendata-unarranged/v1/business-unarranged-account-overdraft?page=2&page-size=25",
    "last": "https://api.mybank.com/open-banking/opendata-unarranged/v1/business-unarranged-account-overdraft?page=10&page-size=25"
  },
  "meta": {
    "totalRecords": 200,
    "totalPages": 10
  }
}
