{
  "data": [
    {
      "participant": {
        "brand": "MyBank Brand",
        "name": "MyBank Exchange Division",
        "cnpjNumber": "12345678901234",
        "urlComplementaryList": "https://mybank.com/exchange/complementary-list"
      },
      "foreignCurrency": "USD",
      "deliveryForeignCurrency": "TELETRANSMISSAO_SWIFT",
      "transactionType": "COMPRA",
      "transactionCategory": "COMERCIO_EXTERIOR",
      "targetAudience": "PESSOA_NATURAL",
      "value": "0.019800",
      "valueUpdateDateTime": "2024-03-05T10:30:00Z",
      "disclaimer": "This rate is estimated and for Open Finance purposes only. Consult our channels for transaction rates."
    },
    {
      "participant": {
        "brand": "MyBank Brand",
        "name": "MyBank Exchange Division",
        "cnpjNumber": "12345678901234",
        "urlComplementaryList": "https://mybank.com/exchange/complementary-list"
      },
      "foreignCurrency": "EUR",
      "deliveryForeignCurrency": "ESPECIE",
      "transactionType": "VENDA",
      "transactionCategory": "VIAGENS_INTERNACIONAIS",
      "targetAudience": "PESSOA_JURIDICA",
      "value": "0.021500",
      "valueUpdateDateTime": "2024-03-05T10:35:00Z",
      "disclaimer": "This rate is estimated and for Open Finance purposes only. Consult our channels for transaction rates."
    }
  ],
  "links": {
    "self": "https://api.mybank.com/open-banking/opendata-exchange/v1/online-rates",
    "first": "https://api.mybank.com/open-banking/opendata-exchange/v1/online-rates?page=1",
    "prev": null,
    "next": "https://api.mybank.com/open-banking/opendata-exchange/v1/online-rates?page=2",
    "last": "https://api.mybank.com/open-banking/opendata-exchange/v1/online-rates?page=10"
  },
  "meta": {
    "totalRecords": 250,
    "totalPages": 10
  }
}
