{
  "data": [
    {
      "participant": {
        "brand": "Marca Banco Exemplo",
        "name": "Instituição Banco Exemplo",
        "cnpjNumber": "12345678901234",
        "urlComplementaryList": "https://bancoexemplo.com/listacomplementar"
      },
      "type": "DESCONTO_DUPLICATAS",
      "fees": {
        "services": [
          {
            "name": "Custódia de Duplicatas",
            "code": "CUST_DUP",
            "chargingTriggerInfo": "Cobrança mensal por duplicata custodiada",
            "prices": [
              {
                "interval": "1_FAIXA",
                "value": "10.00",
                "currency": "BRL",
                "customers": {
                  "rate": "0.250000"
                }
              },
              {
                "interval": "2_FAIXA",
                "value": "9.50",
                "currency": "BRL",
                "customers": {
                  "rate": "0.300000"
                }
              },
              {
                "interval": "3_FAIXA",
                "value": "9.00",
                "currency": "BRL",
                "customers": {
                  "rate": "0.250000"
                }
              },
              {
                "interval": "4_FAIXA",
                "value": "8.50",
                "currency": "BRL",
                "customers": {
                  "rate": "0.200000"
                }
              }
            ],
            "minimum": {
              "value": "5.00",
              "currency": "BRL"
            },
            "maximum": {
              "value": "15.00",
              "currency": "BRL"
            }
          },
          {
            "name": "Análise de Crédito",
            "code": "ANAL_CRED",
            "chargingTriggerInfo": "Cobrança por análise de crédito para desconto de duplicatas",
            "prices": [
              {
                "interval": "1_FAIXA",
                "value": "50.00",
                "currency": "BRL",
                "customers": {
                  "rate": "0.300000"
                }
              },
              {
                "interval": "2_FAIXA",
                "value": "45.00",
                "currency": "BRL",
                "customers": {
                  "rate": "0.250000"
                }
              },
              {
                "interval": "3_FAIXA",
                "value": "40.00",
                "currency": "BRL",
                "customers": {
                  "rate": "0.250000"
                }
              },
              {
                "interval": "4_FAIXA",
                "value": "35.00",
                "currency": "BRL",
                "customers": {
                  "rate": "0.200000"
                }
              }
            ],
            "minimum": {
              "value": "25.00",
              "currency": "BRL"
            },
            "maximum": {
              "value": "75.00",
              "currency": "BRL"
            }
          }
        ]
      },
      "interestRates": [
        {
          "referentialRateIndexer": "PRE_FIXADO",
          "rate": "0.000000",
          "applications": [
            {
              "interval": "1_FAIXA",
              "indexer": {
                "rate": "0.075000"
              },
              "customers": {
                "rate": "0.250000"
              }
            },
            {
              "interval": "2_FAIXA",
              "indexer": {
                "rate": "0.080000"
              },
              "customers": {
                "rate": "0.300000"
              }
            },
            {
              "interval": "3_FAIXA",
              "indexer": {
                "rate": "0.085000"
              },
              "customers": {
                "rate": "0.250000"
              }
            },
            {
              "interval": "4_FAIXA",
              "indexer": {
                "rate": "0.090000"
              },
              "customers": {
                "rate": "0.200000"
              }
            }
          ],
          "minimumRate": "0.075000",
          "maximumRate": "0.090000"
        },
        {
          "referentialRateIndexer": "POS_FIXADO_CDI",
          "rate": "0.950000",
          "applications": [
            {
              "interval": "1_FAIXA",
              "indexer": {
                "rate": "0.950000"
              },
              "customers": {
                "rate": "0.250000"
              }
            },
            {
              "interval": "2_FAIXA",
              "indexer": {
                "rate": "0.980000"
              },
              "customers": {
                "rate": "0.300000"
              }
            },
            {
              "interval": "3_FAIXA",
              "indexer": {
                "rate": "1.000000"
              },
              "customers": {
                "rate": "0.250000"
              }
            },
            {
              "interval": "4_FAIXA",
              "indexer": {
                "rate": "1.020000"
              },
              "customers": {
                "rate": "0.200000"
              }
            }
          ],
          "minimumRate": "0.080000",
          "maximumRate": "0.120000"
        }
      ],
      "requiredWarranties": [
        "CESSAO_DIREITOS_CREDITORIOS",
        "GARANTIA_FIDEJUSSORIA"
      ],
      "termsConditions": "https://bancoexemplo.com/personal_invoice_financings_termos"
    },
    {
      "participant": {
        "brand": "Marca Banco Exemplo",
        "name": "Banco Exemplo - Filial",
        "cnpjNumber": "98765432109876"
      },
      "type": "DESCONTO_CHEQUES",
      "fees": {
        "services": [
          {
            "name": "Taxa de Abertura de Crédito (TAC)",
            "code": "TAC",
            "chargingTriggerInfo": "Cobrança única na formalização da operação",
            "prices": [
              {
                "interval": "1_FAIXA",
                "value": "150.00",
                "currency": "BRL",
                "customers": {
                  "rate": "0.400000"
                }
              },
              {
                "interval": "2_FAIXA",
                "value": "140.00",
                "currency": "BRL",
                "customers": {
                  "rate": "0.300000"
                }
              },
              {
                "interval": "3_FAIXA",
                "value": "130.00",
                "currency": "BRL",
                "customers": {
                  "rate": "0.200000"
                }
              },
              {
                "interval": "4_FAIXA",
                "value": "120.00",
                "currency": "BRL",
                "customers": {
                  "rate": "0.100000"
                }
              }
            ],
            "minimum": {
              "value": "100.00",
              "currency": "BRL"
            },
            "maximum": {
              "value": "200.00",
              "currency": "BRL"
            }
          }
        ]
      },
      "interestRates": [
        {
          "referentialRateIndexer": "POS_FIXADO_TR_TBF",
          "rate": "1.000000",
          "applications": [
            {
              "interval": "1_FAIXA",
              "indexer": {
                "rate": "1.000000"
              },
              "customers": {
                "rate": "0.400000"
              }
            },
            {
              "interval": "2_FAIXA",
              "indexer": {
                "rate": "1.050000"
              },
              "customers": {
                "rate": "0.300000"
              }
            },
            {
              "interval": "3_FAIXA",
              "indexer": {
                "rate": "1.100000"
              },
              "customers": {
                "rate": "0.200000"
              }
            },
            {
              "interval": "4_FAIXA",
              "indexer": {
                "rate": "1.150000"
              },
              "customers": {
                "rate": "0.100000"
              }
            }
          ],
          "minimumRate": "0.095000",
          "maximumRate": "0.150000"
        }
      ],
      "requiredWarranties": [
        "PENHOR"
      ],
      "termsConditions": "Estes termos e condições estão disponíveis mediante solicitação em qualquer agência Banco Exemplo."
    }
  ],
  "links": {
    "self": "https://api.bancoexemplo.com/open-banking/opendata-invoicefinancings/v1/personal-invoice-financings",
    "first": "https://api.bancoexemplo.com/open-banking/opendata-invoicefinancings/v1/personal-invoice-financings?page=1",
    "prev": null,
    "next": "https://api.bancoexemplo.com/open-banking/opendata-invoicefinancings/v1/personal-invoice-financings?page=2",
    "last": "https://api.bancoexemplo.com/open-banking/opendata-invoicefinancings/v1/personal-invoice-financings?page=10"
  },
  "meta": {
    "totalRecords": 250,
    "totalPages": 10
  }
}
