{
  "data": [
    {
      "participant": {
        "brand": "Marca Banco Exemplo",
        "name": "Divisão de Câmbio Banco Exemplo",
        "cnpjNumber": "12345678901234",
        "urlComplementaryList": "https://bancoexemplo.com/cambio/lista-complementar"
      },
      "foreignCurrency": "USD",
      "deliveryForeignCurrency": "TELETRANSMISSAO_SWIFT",
      "transactionType": "COMPRA",
      "transactionCategory": "COMERCIO_EXTERIOR",
      "targetAudience": "PESSOA_NATURAL",
      "value": "0.019800",
      "valueUpdateDateTime": "2024-03-05T10:30:00Z",
      "disclaimer": "Informamos que esta taxa é estimada e exclusiva para fins de Open Finance, não sendo válida para a contratação de operações de câmbio. Para obter a taxa para fechamento do câmbio, pedimos consultar os canais disponíveis para contratação."
    },
    {
      "participant": {
        "brand": "Marca Banco Exemplo",
        "name": "Divisão de Câmbio Banco Exemplo",
        "cnpjNumber": "12345678901234",
        "urlComplementaryList": "https://bancoexemplo.com/cambio/lista-complementar"
      },
      "foreignCurrency": "EUR",
      "deliveryForeignCurrency": "ESPECIE",
      "transactionType": "VENDA",
      "transactionCategory": "VIAGENS_INTERNACIONAIS",
      "targetAudience": "PESSOA_JURIDICA",
      "value": "0.021500",
      "valueUpdateDateTime": "2024-03-05T10:35:00Z",
      "disclaimer": "Informamos que esta taxa é estimada e exclusiva para fins de Open Finance, não sendo válida para a contratação de operações de câmbio. Para obter a taxa para fechamento do câmbio, pedimos consultar os canais disponíveis para contratação."
    }
  ],
  "links": {
    "self": "https://api.bancoexemplo.com/open-banking/opendata-exchange/v1/online-rates",
    "first": "https://api.bancoexemplo.com/open-banking/opendata-exchange/v1/online-rates?page=1",
    "prev": null,
    "next": "https://api.bancoexemplo.com/open-banking/opendata-exchange/v1/online-rates?page=2",
    "last": "https://api.bancoexemplo.com/open-banking/opendata-exchange/v1/online-rates?page=10"
  },
  "meta": {
    "totalRecords": 250,
    "totalPages": 10
  }
}
