{
  "data": [
    {
      "participant": {
        "brand": "Banco Exemplo Brand",
        "name": "Divisão de Financiamentos Pessoa Natural Banco Exemplo",
        "cnpjNumber": "00123456000190",
        "urlComplementaryList": "https://bancoexemplo.com.br/open-banking/lista-complementar-pj"
      },
      "type": "FINANCIAMENTO_AQUISICAO_BENS_VEICULOS_AUTOMOTORES",
      "fees": {
        "services": [
          {
            "name": "Tarifa de Avaliação de Veículo",
            "code": "TAV001",
            "chargingTriggerInfo": "Cobrada no momento da solicitação de avaliação do veículo.",
            "prices": [
              {
                "interval": "1_FAIXA",
                "value": "120.00",
                "currency": "BRL",
                "customers": {
                  "rate": "0.300000"
                }
              },
              {
                "interval": "2_FAIXA",
                "value": "140.00",
                "currency": "BRL",
                "customers": {
                  "rate": "0.350000"
                }
              },
              {
                "interval": "3_FAIXA",
                "value": "160.00",
                "currency": "BRL",
                "customers": {
                  "rate": "0.200000"
                }
              },
              {
                "interval": "4_FAIXA",
                "value": "180.00",
                "currency": "BRL",
                "customers": {
                  "rate": "0.150000"
                }
              }
            ],
            "minimum": {
              "value": "100.00",
              "currency": "BRL"
            },
            "maximum": {
              "value": "250.00",
              "currency": "BRL"
            }
          },
          {
            "name": "Tarifa de Registro de Contrato",
            "code": "TRC002",
            "chargingTriggerInfo": "Cobrada na formalização do contrato.",
            "prices": [
              {
                "interval": "1_FAIXA",
                "value": "45.00",
                "currency": "BRL",
                "customers": {
                  "rate": "0.400000"
                }
              },
              {
                "interval": "2_FAIXA",
                "value": "50.00",
                "currency": "BRL",
                "customers": {
                  "rate": "0.300000"
                }
              },
              {
                "interval": "3_FAIXA",
                "value": "55.00",
                "currency": "BRL",
                "customers": {
                  "rate": "0.200000"
                }
              },
              {
                "interval": "4_FAIXA",
                "value": "60.00",
                "currency": "BRL",
                "customers": {
                  "rate": "0.100000"
                }
              }
            ],
            "minimum": {
              "value": "35.00",
              "currency": "BRL"
            },
            "maximum": {
              "value": "70.00",
              "currency": "BRL"
            }
          }
        ]
      },
      "interestRates": [
        {
          "referentialRateIndexer": "PRE_FIXADO",
          "rate": "0.000000",
          "applications": [
            {
              "interval": "1_FAIXA",
              "indexer": {
                "rate": "0.075000"
              },
              "customers": {
                "rate": "0.300000"
              }
            },
            {
              "interval": "2_FAIXA",
              "indexer": {
                "rate": "0.085000"
              },
              "customers": {
                "rate": "0.300000"
              }
            },
            {
              "interval": "3_FAIXA",
              "indexer": {
                "rate": "0.095000"
              },
              "customers": {
                "rate": "0.200000"
              }
            },
            {
              "interval": "4_FAIXA",
              "indexer": {
                "rate": "0.105000"
              },
              "customers": {
                "rate": "0.200000"
              }
            }
          ],
          "minimumRate": "0.070000",
          "maximumRate": "0.120000"
        },
        {
          "referentialRateIndexer": "POS_FIXADO_TR_TBF",
          "rate": "1.000000",
          "applications": [
            {
              "interval": "1_FAIXA",
              "indexer": {
                "rate": "0.000000"
              },
              "customers": {
                "rate": "0.400000"
              }
            },
            {
              "interval": "2_FAIXA",
              "indexer": {
                "rate": "0.000000"
              },
              "customers": {
                "rate": "0.300000"
              }
            },
            {
              "interval": "3_FAIXA",
              "indexer": {
                "rate": "0.000000"
              },
              "customers": {
                "rate": "0.200000"
              }
            },
            {
              "interval": "4_FAIXA",
              "indexer": {
                "rate": "0.000000"
              },
              "customers": {
                "rate": "0.100000"
              }
            }
          ],
          "minimumRate": "0.015000",
          "maximumRate": "0.045000"
        }
      ],
      "requiredWarranties": [
        "ALIENACAO_FIDUCIARIA",
        "SEGUROS_ASSEMELHADOS"
      ],
      "termsConditions": "https://bancoexemplo.com.br/condicoes-gerais-financiamento-pf"
    },
    {
      "participant": {
        "brand": "Banco Exemplo Brand Empresas",
        "name": "Departamento de Crédito Empresarial Banco Exemplo",
        "cnpjNumber": "11222333000144",
        "urlComplementaryList": "https://bancoexemplo.com.br/open-banking/lista-complementar-pj-rural"
      },
      "type": "FINANCIAMENTO_RURAL_INVESTIMENTO",
      "fees": {
        "services": [
          {
            "name": "Tarifa de Análise de Crédito Rural",
            "code": "TACR001",
            "chargingTriggerInfo": "Cobrada mediante solicitação de análise de crédito rural.",
            "prices": [
              {
                "interval": "1_FAIXA",
                "value": "250.00",
                "currency": "BRL",
                "customers": {
                  "rate": "0.500000"
                }
              },
              {
                "interval": "2_FAIXA",
                "value": "300.00",
                "currency": "BRL",
                "customers": {
                  "rate": "0.250000"
                }
              },
              {
                "interval": "3_FAIXA",
                "value": "350.00",
                "currency": "BRL",
                "customers": {
                  "rate": "0.150000"
                }
              },
              {
                "interval": "4_FAIXA",
                "value": "400.00",
                "currency": "BRL",
                "customers": {
                  "rate": "0.100000"
                }
              }
            ],
            "minimum": {
              "value": "200.00",
              "currency": "BRL"
            },
            "maximum": {
              "value": "450.00",
              "currency": "BRL"
            }
          }
        ]
      },
      "interestRates": [
        {
          "referentialRateIndexer": "CREDITO_RURAL_TCR_PRE",
          "rate": "0.000000",
          "applications": [
            {
              "interval": "1_FAIXA",
              "indexer": {
                "rate": "0.045000"
              },
              "customers": {
                "rate": "0.400000"
              }
            },
            {
              "interval": "2_FAIXA",
              "indexer": {
                "rate": "0.055000"
              },
              "customers": {
                "rate": "0.300000"
              }
            },
            {
              "interval": "3_FAIXA",
              "indexer": {
                "rate": "0.065000"
              },
              "customers": {
                "rate": "0.200000"
              }
            },
            {
              "interval": "4_FAIXA",
              "indexer": {
                "rate": "0.075000"
              },
              "customers": {
                "rate": "0.100000"
              }
            }
          ],
          "minimumRate": "0.040000",
          "maximumRate": "0.090000"
        }
      ],
      "requiredWarranties": [
        "HIPOTECA",
        "CAUCAO",
        "OPERACOES_GARANTIDAS_PELO_GOVERNO"
      ],
      "termsConditions": "https://bancoexemplo.com.br/condicoes-financiamento-rural-pj"
    }
  ],
  "links": {
    "self": "https://api.bancoexemplo.com.br/open-banking/opendata-financings/v1/personal-financings",
    "first": "https://api.bancoexemplo.com.br/open-banking/opendata-financings/v1/personal-financings?page=1",
    "prev": null,
    "next": "https://api.bancoexemplo.com.br/open-banking/opendata-financings/v1/personal-financings?page=2",
    "last": "https://api.bancoexemplo.com.br/open-banking/opendata-financings/v1/personal-financings?page=10"
  },
  "meta": {
    "totalRecords": 150,
    "totalPages": 8
  }
}
