{
  "data": [
    {
      "participant": {
        "brand": "Banco Exemplo Brand",
        "name": "Divisão de Cartões de Crédito Banco Exemplo",
        "cnpjNumber": "12345678901234",
        "urlComplementaryList": "https://bancoexemplo.com/lista-complementar"
      },
      "name": "Cartão Platinum Banco Exemplo",
      "identification": {
        "product": {
          "type": "PLATINUM",
          "typeAdditionalInfo": null
        },
        "creditCard": {
          "network": "MASTERCARD",
          "networkAdditionalInfo": null
        }
      },
      "rewardsProgram": {
        "hasRewardProgram": true,
        "rewardProgramInfo": "https://bancoexemplo.com/programa-recompensas-platinum"
      },
      "fees": {
        "services": [
          {
            "name": "ANUIDADE_CARTAO_BASICO_NACIONAL",
            "code": "ANUIDADE_NACIONAL",
            "chargingTriggerInfo": "Tarifa anual cobrada para cartão básico nacional.",
            "prices": [
              {
                "interval": "1_FAIXA",
                "value": "75.00",
                "currency": "BRL",
                "customers": {
                  "rate": "0.250000"
                }
              },
              {
                "interval": "2_FAIXA",
                "value": "150.00",
                "currency": "BRL",
                "customers": {
                  "rate": "0.250000"
                }
              },
              {
                "interval": "3_FAIXA",
                "value": "225.00",
                "currency": "BRL",
                "customers": {
                  "rate": "0.250000"
                }
              },
              {
                "interval": "4_FAIXA",
                "value": "300.00",
                "currency": "BRL",
                "customers": {
                  "rate": "0.250000"
                }
              }
            ],
            "minimum": {
              "value": "50.00",
              "currency": "BRL"
            },
            "maximum": {
              "value": "350.00",
              "currency": "BRL"
            }
          },
          {
            "name": "AVALIACAO_EMERGENCIAL_CREDITO",
            "code": "AVALIACAO_EMERGENCIAL_CREDITO",
            "chargingTriggerInfo": "Tarifa para avaliação emergencial de crédito.",
            "prices": [
              {
                "interval": "1_FAIXA",
                "value": "15.00",
                "currency": "BRL",
                "customers": {
                  "rate": "0.250000"
                }
              },
              {
                "interval": "2_FAIXA",
                "value": "20.00",
                "currency": "BRL",
                "customers": {
                  "rate": "0.250000"
                }
              },
              {
                "interval": "3_FAIXA",
                "value": "25.00",
                "currency": "BRL",
                "customers": {
                  "rate": "0.250000"
                }
              },
              {
                "interval": "4_FAIXA",
                "value": "30.00",
                "currency": "BRL",
                "customers": {
                  "rate": "0.250000"
                }
              }
            ],
            "minimum": {
              "value": "10.00",
              "currency": "BRL"
            },
            "maximum": {
              "value": "35.00",
              "currency": "BRL"
            }
          }
        ]
      },
      "interest": {
        "rates": [
          {
            "referentialRateIndexer": "PRE_FIXADO",
            "rate": "0.100000",
            "applications": [
              {
                "interval": "1_FAIXA",
                "indexer": {
                  "rate": "0.080000"
                },
                "customers": {
                  "rate": "0.250000"
                }
              },
              {
                "interval": "2_FAIXA",
                "indexer": {
                  "rate": "0.120000"
                },
                "customers": {
                  "rate": "0.250000"
                }
              },
              {
                "interval": "3_FAIXA",
                "indexer": {
                  "rate": "0.150000"
                },
                "customers": {
                  "rate": "0.250000"
                }
              },
              {
                "interval": "4_FAIXA",
                "indexer": {
                  "rate": "0.200000"
                },
                "customers": {
                  "rate": "0.250000"
                }
              }
            ],
            "minimumRate": "0.050000",
            "maximumRate": "0.250000"
          }
        ],
        "instalmentRates": [
          {
            "referentialRateIndexer": "POS_FIXADO_CDI",
            "rate": "0.050000",
            "applications": [
              {
                "interval": "1_FAIXA",
                "indexer": {
                  "rate": "0.040000"
                },
                "customers": {
                  "rate": "0.250000"
                }
              },
              {
                "interval": "2_FAIXA",
                "indexer": {
                  "rate": "0.060000"
                },
                "customers": {
                  "rate": "0.250000"
                }
              },
              {
                "interval": "3_FAIXA",
                "indexer": {
                  "rate": "0.075000"
                },
                "customers": {
                  "rate": "0.250000"
                }
              },
              {
                "interval": "4_FAIXA",
                "indexer": {
                  "rate": "0.100000"
                },
                "customers": {
                  "rate": "0.250000"
                }
              }
            ],
            "minimumRate": "0.025000",
            "maximumRate": "0.125000"
          }
        ],
        "otherCredits": [
          {
            "code": "SAQUE_A_CREDITO",
            "codeAdditionalInfo": null
          }
        ]
      },
      "requiredWarranties": [
        "NAO_EXIGE_GARANTIA"
      ],
      "termsConditions": {
        "minimumFeeRate": "0.150000",
        "additionalInfo": "Taxas de juros podem variar baseadas na avaliação de risco.",
        "elegibilityCriteriaInfo": "https://bancoexemplo.com/platinum-elegibilidade",
        "closingProcessInfo": "https://bancoexemplo.com/processo-encerramento-cartao"
      }
    },
    {
      "participant": {
        "brand": "Banco Exemplo Brand",
        "name": "Divisão de Cartões de Crédito Banco Exemplo",
        "cnpjNumber": "12345678901234",
        "urlComplementaryList": "https://bancoexemplo.com/lista-complementar"
      },
      "name": "Cartão Gold Banco Exemplo",
      "identification": {
        "product": {
          "type": "GOLD",
          "typeAdditionalInfo": null
        },
        "creditCard": {
          "network": "VISA",
          "networkAdditionalInfo": null
        }
      },
      "rewardsProgram": {
        "hasRewardProgram": false,
        "rewardProgramInfo": null
      },
      "fees": {
        "services": [
          {
            "name": "ANUIDADE_CARTAO_BASICO_NACIONAL",
            "code": "ANUIDADE_NACIONAL",
            "chargingTriggerInfo": "Tarifa anual cobrada para cartão básico nacional.",
            "prices": [
              {
                "interval": "1_FAIXA",
                "value": "50.00",
                "currency": "BRL",
                "customers": {
                  "rate": "0.250000"
                }
              },
              {
                "interval": "2_FAIXA",
                "value": "100.00",
                "currency": "BRL",
                "customers": {
                  "rate": "0.250000"
                }
              },
              {
                "interval": "3_FAIXA",
                "value": "150.00",
                "currency": "BRL",
                "customers": {
                  "rate": "0.250000"
                }
              },
              {
                "interval": "4_FAIXA",
                "value": "200.00",
                "currency": "BRL",
                "customers": {
                  "rate": "0.250000"
                }
              }
            ],
            "minimum": {
              "value": "30.00",
              "currency": "BRL"
            },
            "maximum": {
              "value": "250.00",
              "currency": "BRL"
            }
          }
        ]
      },
      "interest": {
        "rates": [
          {
            "referentialRateIndexer": "POS_FIXADO_SELIC",
            "rate": "0.120000",
            "applications": [
              {
                "interval": "1_FAIXA",
                "indexer": {
                  "rate": "0.100000"
                },
                "customers": {
                  "rate": "0.250000"
                }
              },
              {
                "interval": "2_FAIXA",
                "indexer": {
                  "rate": "0.140000"
                },
                "customers": {
                  "rate": "0.250000"
                }
              },
              {
                "interval": "3_FAIXA",
                "indexer": {
                  "rate": "0.170000"
                },
                "customers": {
                  "rate": "0.250000"
                }
              },
              {
                "interval": "4_FAIXA",
                "indexer": {
                  "rate": "0.220000"
                },
                "customers": {
                  "rate": "0.250000"
                }
              }
            ],
            "minimumRate": "0.070000",
            "maximumRate": "0.300000"
          }
        ],
        "instalmentRates": [],
        "otherCredits": [
          {
            "code": "PAGAMENTOS_CONTAS",
            "codeAdditionalInfo": null
          },
          {
            "code": "OUTROS",
            "codeAdditionalInfo": "Rotativo emergencial"
          }
        ]
      },
      "requiredWarranties": [
        "GARANTIA_FIDEJUSSORIA"
      ],
      "termsConditions": {
        "minimumFeeRate": "0.200000",
        "additionalInfo": "Taxas de juros detalhadas disponíveis sob requisição.",
        "elegibilityCriteriaInfo": "https://bancoexemplo.com/gold-elegibilidade",
        "closingProcessInfo": "https://bancoexemplo.com/processo-encerramento-cartao"
      }
    },
     {
      "participant": {
        "brand": "Banco Exemplo Brand",
        "name": "Divisão de Cartões de Crédito Banco Exemplo",
        "cnpjNumber": "12345678901234",
        "urlComplementaryList": "https://bancoexemplo.com/lista-complementar"
      },
      "name": "Cartão Classic Banco Exemplo",
      "identification": {
        "product": {
          "type": "CLASSIC_NACIONAL",
          "typeAdditionalInfo": null
        },
        "creditCard": {
          "network": "BANDEIRA_PROPRIA",
          "networkAdditionalInfo": "Própria Banco Exemplo"
        }
      },
      "rewardsProgram": {
        "hasRewardProgram": false,
        "rewardProgramInfo": null
      },
      "fees": {
        "services": []
      },
      "interest": {
        "rates": [],
        "instalmentRates": [],
        "otherCredits": []
      },
      "requiredWarranties": [],
      "termsConditions": {
        "minimumFeeRate": "0.100000",
        "additionalInfo": "Sem cobrança de juros adicionais para este cartão.",
        "elegibilityCriteriaInfo": "https://bancoexemplo.com/classic-elegibilidade",
        "closingProcessInfo": "https://bancoexemplo.com/processo-encerramento-cartao"
      }
    }
  ],
  "links": {
    "self": "https://api.bancoexemplo.com/open-banking/opendata-creditcards/v1/personal-credit-cards",
    "first": "https://api.bancoexemplo.com/open-banking/opendata-creditcards/v1/personal-credit-cards?page=1",
    "prev": null,
    "next": "https://api.bancoexemplo.com/open-banking/opendata-creditcards/v1/personal-credit-cards?page=2",
    "last": "https://api.bancoexemplo.com/open-banking/opendata-creditcards/v1/personal-credit-cards?page=10"
  },
  "meta": {
    "totalRecords": 250,
    "totalPages": 10
  }
}
