{
  "funds": {
    "data": [
      {
        "participant": {
          "brand": "Banco Exemplo",
          "name": "Banco Exemplo Investimentos",
          "cnpjNumber": "12345678000190",
          "urlComplementaryList": "https://bancoexemplo.com/investimentos/empresas"
        },
        "name": "Banco Exemplo Fundo de Renda Fixa Longo Prazo",
        "cnpjNumber": "12345000000191",
        "isinCode": "BRAAAAAAA001",
        "admin": {
          "name": "Banco Exemplo Administradora de Fundos",
          "cnpjNumber": "98765432000189"
        },
        "fundManager": {
          "name": "Banco Exemplo Gestão de Ativos",
          "cnpjNumber": "54321678000178"
        },
        "anbimaCategory": "RENDA_FIXA",
        "fees": {
          "maxAdminFee": "0.020000",
          "entryFee": "0.010000",
          "performanceFee": {
            "method": "ATIVO",
            "benchmark": "CDI",
            "benchmarkAdditionalInfo": null,
            "amount": "0.050000"
          },
          "exitFee": "0.030000"
        },
        "generalConditions": {
          "minimumAmount": {
            "value": "1000.00",
            "currency": "BRL"
          },
          "redemption": {
            "quotationDays": 1,
            "quotationTerm": "DIAS_UTEIS",
            "paymentDays": 2,
            "paymentTerm": "DIAS_UTEIS",
            "graceDays": 30
          },
          "application": {
            "quotationDays": 1,
            "quotationTerm": "DIAS_UTEIS"
          },
          "fundQuotaType": "COTA_FECHAMENTO"
        },
        "taxation": "LONGO_PRAZO"
      },
      {
        "participant": {
          "brand": "Banco Exemplo",
          "name": "Banco Exemplo Investimentos",
          "cnpjNumber": "12345678000190",
          "urlComplementaryList": "https://bancoexemplo.com/investimentos/empresas"
        },
        "name": "Banco Exemplo Fundo de Índice de Ações",
        "cnpjNumber": "45678901000123",
        "isinCode": "BRAAAAAAA002",
        "admin": {
          "name": "Banco Exemplo Administradora de Fundos",
          "cnpjNumber": "98765432000189"
        },
        "fundManager": {
          "name": "Banco Exemplo Gestão de Ativos",
          "cnpjNumber": "54321678000178"
        },
        "anbimaCategory": "ACOES",
        "fees": {
          "maxAdminFee": "0.015000",
          "entryFee": null,
          "performanceFee": {
            "method": "PASSIVO",
            "benchmark": "IBOVESPA",
            "benchmarkAdditionalInfo": null,
            "amount": "0.100000"
          },
          "exitFee": null
        },
        "generalConditions": {
          "minimumAmount": {
            "value": "500.00",
            "currency": "BRL"
          },
          "redemption": {
            "quotationDays": 3,
            "quotationTerm": "DIAS_CORRIDOS",
            "paymentDays": 5,
            "paymentTerm": "DIAS_CORRIDOS",
            "graceDays": null
          },
          "application": {
            "quotationDays": 2,
            "quotationTerm": "DIAS_CORRIDOS"
          },
          "fundQuotaType": "COTA_ABERTURA"
        },
        "taxation": "VARIAVEL"
      }
    ],
    "links": {
      "self": "https://api.bancoexemplo.com/opendata/investimentos/v1/funds",
      "first": "https://api.bancoexemplo.com/opendata/investimentos/v1/funds?page=1",
      "next": "https://api.bancoexemplo.com/opendata/investimentos/v1/funds?page=2",
      "last": "https://api.bancoexemplo.com/opendata/investimentos/v1/funds?page=5"
    },
    "meta": {
      "totalRecords": 100,
      "totalPages": 5
    }
  },
  "bankFixedIncomes": {
    "data": [
      {
        "participant": {
          "brand": "Banco Exemplo",
          "name": "Banco Exemplo Investimentos",
          "cnpjNumber": "12345678000190",
          "urlComplementaryList": "https://bancoexemplo.com/investimentos/empresas"
        },
        "issuerInstitutionCnpjNumber": "12345678000190",
        "issuerInstitutionName": "Banco Exemplo S.A.",
        "investmentType": "CDB",
        "index": {
          "indexer": "CDI",
          "indexerAdditionalInfo": null,
          "issueRemunerationRate": {
            "prices": [
              {
                "interval": "1_FAIXA",
                "value": "0.020300",
                "operationRate": "0.500000"
              },
              {
                "interval": "2_FAIXA",
                "value": "0.030600",
                "operationRate": "0.100000"
              },
              {
                "interval": "3_FAIXA",
                "value": "0.034300",
                "operationRate": "0.300000"
              },
              {
                "interval": "4_FAIXA",
                "value": "0.246800",
                "operationRate": "0.100000"
              }
            ],
            "minimum": "0.010000",
            "maximum": "0.300000"
          }
        },
        "investmentConditions": {
          "minimumAmount": "100.00",
          "redemptionTerm": "DIARIA",
          "expirationPeriod": "1081+",
          "gracePeriod": "1081+"
        },
        "targetAudience": "PESSOA_NATURAL"
      },
      {
        "participant": {
          "brand": "Banco Exemplo",
          "name": "Banco Exemplo Investimentos",
          "cnpjNumber": "12345678000190",
          "urlComplementaryList": "https://bancoexemplo.com/investimentos/empresas"
        },
        "issuerInstitutionCnpjNumber": "12345678000190",
        "issuerInstitutionName": "Banco Exemplo S.A.",
        "investmentType": "LCI",
        "index": {
          "indexer": "IPCA",
          "indexerAdditionalInfo": null,
          "issueRemunerationRate": {
            "prices": [
              {
                "interval": "1_FAIXA",
                "value": "0.020300",
                "operationRate": "0.500000"
              },
              {
                "interval": "2_FAIXA",
                "value": "0.030600",
                "operationRate": "0.100000"
              },
              {
                "interval": "3_FAIXA",
                "value": "0.034300",
                "operationRate": "0.300000"
              },
              {
                "interval": "4_FAIXA",
                "value": "0.246800",
                "operationRate": "0.100000"
              }
            ],
            "minimum": "0.019800",
            "maximum": "0.019800"
          }
        },
        "investmentConditions": {
          "minimumAmount": "500.00",
          "redemptionTerm": "DATA_VENCIMENTO",
          "expirationPeriod": "361_1080",
          "gracePeriod": "361_1080"
        },
        "targetAudience": "PESSOA_JURIDICA"
      }
    ],
    "links": {
      "self": "https://api.bancoexemplo.com/opendata/investimentos/v1/bank-fixed-incomes",
      "first": "https://api.bancoexemplo.com/opendata/investimentos/v1/bank-fixed-incomes?page=1",
      "next": null,
      "last": "https://api.bancoexemplo.com/opendata/investimentos/v1/bank-fixed-incomes?page=1"
    },
    "meta": {
      "totalRecords": 2,
      "totalPages": 1
    }
  },
  "creditFixedIncomes": {
    "data": [
      {
        "participant": {
          "brand": "Banco Exemplo",
          "name": "Banco Exemplo Investimentos",
          "cnpjNumber": "12345678000190",
          "urlComplementaryList": "https://bancoexemplo.com/investimentos/empresas"
        },
        "investmentType": "DEBENTURES",
        "custodyFee": {
          "prices": [
            {
              "interval": "1_FAIXA",
              "value": "0.020300",
              "operationRate": "0.500000"
            },
            {
              "interval": "2_FAIXA",
              "value": "0.030600",
              "operationRate": "0.100000"
            },
            {
              "interval": "3_FAIXA",
              "value": "0.034300",
              "operationRate": "0.300000"
            },
            {
              "interval": "4_FAIXA",
              "value": "0.246800",
              "operationRate": "0.100000"
            }
          ],
          "minimum": "0.010000",
          "maximum": "0.300000"
        },
        "loadingRate": {
          "prices": [
            {
              "interval": "1_FAIXA",
              "value": "0.020300",
              "operationRate": "0.500000"
            },
            {
              "interval": "2_FAIXA",
              "value": "0.030600",
              "operationRate": "0.100000"
            },
            {
              "interval": "3_FAIXA",
              "value": "0.034300",
              "operationRate": "0.300000"
            },
            {
              "interval": "4_FAIXA",
              "value": "0.246800",
              "operationRate": "0.100000"
            }
          ],
          "minimum": "0.010000",
          "maximum": "0.300000"
        },
        "targetAudience": "PESSOA_JURIDICA"
      },
      {
        "participant": {
          "brand": "Banco Exemplo",
          "name": "Banco Exemplo Investimentos",
          "cnpjNumber": "12345678000190",
          "urlComplementaryList": "https://bancoexemplo.com/investimentos/empresas"
        },
        "investmentType": "CRI",
        "custodyFee": {
          "prices": [
            {
              "interval": "1_FAIXA",
              "value": "0.020300",
              "operationRate": "0.500000"
            },
            {
              "interval": "2_FAIXA",
              "value": "0.030600",
              "operationRate": "0.100000"
            },
            {
              "interval": "3_FAIXA",
              "value": "0.034300",
              "operationRate": "0.300000"
            },
            {
              "interval": "4_FAIXA",
              "value": "0.246800",
              "operationRate": "0.100000"
            }
          ],
          "minimum": "0.019800",
          "maximum": "0.019800"
        },
        "loadingRate": {
          "prices": [
            {
              "interval": "1_FAIXA",
              "value": "0.020300",
              "operationRate": "0.500000"
            },
            {
              "interval": "2_FAIXA",
              "value": "0.030600",
              "operationRate": "0.100000"
            },
            {
              "interval": "3_FAIXA",
              "value": "0.034300",
              "operationRate": "0.300000"
            },
            {
              "interval": "4_FAIXA",
              "value": "0.246800",
              "operationRate": "0.100000"
            }
          ],
          "minimum": "0.019800",
          "maximum": "0.019800"
        },
        "targetAudience": "PESSOA_NATURAL"
      }
    ],
    "links": {
      "self": "https://api.bancoexemplo.com/opendata/investimentos/v1/credit-fixed-incomes",
      "first": "https://api.bancoexemplo.com/opendata/investimentos/v1/credit-fixed-incomes?page=1",
      "prev": null,
      "next": null,
      "last": "https://api.bancoexemplo.com/opendata/investimentos/v1/credit-fixed-incomes?page=1"
    },
    "meta": {
      "totalRecords": 2,
      "totalPages": 1
    }
  },
  "variableIncomes": {
    "data": [
      {
        "participant": {
          "brand": "Banco Exemplo",
          "name": "Banco Exemplo Investimentos",
          "cnpjNumber": "12345678000190",
          "urlComplementaryList": "https://bancoexemplo.com/investimentos/empresas"
        },
        "investmentType": "ACOES",
        "custodyFee": {
          "prices": [
            {
              "interval": "1_FAIXA",
              "value": "0.020300",
              "operationRate": "0.500000"
            },
            {
              "interval": "2_FAIXA",
              "value": "0.030600",
              "operationRate": "0.100000"
            },
            {
              "interval": "3_FAIXA",
              "value": "0.034300",
              "operationRate": "0.300000"
            },
            {
              "interval": "4_FAIXA",
              "value": "0.246800",
              "operationRate": "0.100000"
            }
          ],
          "minimum": "0.010000",
          "maximum": "0.300000"
        },
        "loadingRate": {
          "prices": [
            {
              "interval": "1_FAIXA",
              "value": "0.020300",
              "operationRate": "0.500000"
            },
            {
              "interval": "2_FAIXA",
              "value": "0.030600",
              "operationRate": "0.100000"
            },
            {
              "interval": "3_FAIXA",
              "value": "0.034300",
              "operationRate": "0.300000"
            },
            {
              "interval": "4_FAIXA",
              "value": "0.246800",
              "operationRate": "0.100000"
            }
          ],
          "minimum": "0.010000",
          "maximum": "0.300000"
        },
        "targetAudience": "PESSOA_JURIDICA"
      },
      {
        "participant": {
          "brand": "Banco Exemplo",
          "name": "Banco Exemplo Investimentos",
          "cnpjNumber": "12345678000190",
          "urlComplementaryList": "https://bancoexemplo.com/investimentos/empresas"
        },
        "investmentType": "FUNDO_INDICES",
        "custodyFee": {
          "prices": [
            {
              "interval": "1_FAIXA",
              "value": "0.020300",
              "operationRate": "0.500000"
            },
            {
              "interval": "2_FAIXA",
              "value": "0.030600",
              "operationRate": "0.100000"
            },
            {
              "interval": "3_FAIXA",
              "value": "0.034300",
              "operationRate": "0.300000"
            },
            {
              "interval": "4_FAIXA",
              "value": "0.246800",
              "operationRate": "0.100000"
            }
          ],
          "minimum": "0.010000",
          "maximum": "0.300000"
        },
        "loadingRate": {
          "prices": [
            {
              "interval": "1_FAIXA",
              "value": "0.020300",
              "operationRate": "0.500000"
            },
            {
              "interval": "2_FAIXA",
              "value": "0.030600",
              "operationRate": "0.100000"
            },
            {
              "interval": "3_FAIXA",
              "value": "0.034300",
              "operationRate": "0.300000"
            },
            {
              "interval": "4_FAIXA",
              "value": "0.246800",
              "operationRate": "0.100000"
            }
          ],
          "minimum": "0.010000",
          "maximum": "0.300000"
        },
        "targetAudience": "PESSOA_JURIDICA"
      }
    ],
    "links": {
      "self": "https://api.bancoexemplo.com/opendata/investimentos/v1/variable-incomes",
      "first": "https://api.bancoexemplo.com/opendata/investimentos/v1/variable-incomes?page=1",
      "prev": null,
      "next": null,
      "last": "https://api.bancoexemplo.com/opendata/investimentos/v1/variable-incomes?page=1"
    },
    "meta": {
      "totalRecords": 2,
      "totalPages": 1
    }
  },
  "treasureTitles": {
    "data": [
      {
        "participant": {
          "brand": "Banco Exemplo",
          "name": "Banco Exemplo Investimentos",
          "cnpjNumber": "12345678000190",
          "urlComplementaryList": "https://bancoexemplo.com/investimentos/empresas"
        },
        "investmentType": "TESOURO_DIRETO",
        "custodyFee": {
          "prices": [
            {
              "interval": "1_FAIXA",
              "value": "0.020300",
              "operationRate": "0.500000"
            },
            {
              "interval": "2_FAIXA",
              "value": "0.030600",
              "operationRate": "0.100000"
            },
            {
              "interval": "3_FAIXA",
              "value": "0.034300",
              "operationRate": "0.300000"
            },
            {
              "interval": "4_FAIXA",
              "value": "0.246800",
              "operationRate": "0.100000"
            }
          ],
          "minimum": "0.010000",
          "maximum": "0.300000"
        },
        "loadingRate": {
          "prices": [
            {
              "interval": "1_FAIXA",
              "value": "0.020300",
              "operationRate": "0.500000"
            },
            {
              "interval": "2_FAIXA",
              "value": "0.030600",
              "operationRate": "0.100000"
            },
            {
              "interval": "3_FAIXA",
              "value": "0.034300",
              "operationRate": "0.300000"
            },
            {
              "interval": "4_FAIXA",
              "value": "0.246800",
              "operationRate": "0.100000"
            }
          ],
          "minimum": "0.010000",
          "maximum": "0.300000"
        }
      }
    ],
    "links": {
      "self": "https://api.bancoexemplo.com/opendata/investimentos/v1/treasure-titles",
      "first": "https://api.bancoexemplo.com/opendata/investimentos/v1/treasure-titles?page=1",
      "prev": null,
      "next": null,
      "last": "https://api.bancoexemplo.com/opendata/investimentos/v1/treasure-titles?page=1"
    },
    "meta": {
      "totalRecords": 1,
      "totalPages": 1
    }
  }
}
