{
  "data": [
    {
      "participant": {
        "brand": "Banco Exemplo",
        "name": "Banco Exemplo S.A.",
        "cnpjNumber": "12345678000190",
        "urlComplementaryList": "https://bancoexemplo.com.br/lista-complementar"
      },
      "type": "CONTA_DEPOSITO_A_VISTA",
      "fees": {
        "priorityServices": [
          {
            "name": "TRANSFERENCIA_TED_PESSOAL_OU_PRESENCIAL",
            "code": "TED_PESSOAL",
            "chargingTriggerInfo": "Transferência bancária TED realizada presencialmente.",
            "prices": [
              {
                "interval": "1_FAIXA",
                "value": "10.00",
                "currency": "BRL",
                "customers": {
                  "rate": "0.250000"
                }
              },
              {
                "interval": "2_FAIXA",
                "value": "12.50",
                "currency": "BRL",
                "customers": {
                  "rate": "0.250000"
                }
              },
              {
                "interval": "3_FAIXA",
                "value": "15.00",
                "currency": "BRL",
                "customers": {
                  "rate": "0.250000"
                }
              },
              {
                "interval": "4_FAIXA",
                "value": "17.50",
                "currency": "BRL",
                "customers": {
                  "rate": "0.250000"
                }
              }
            ],
            "minimum": {
              "value": "8.00",
              "currency": "BRL"
            },
            "maximum": {
              "value": "20.00",
              "currency": "BRL"
            }
          }
        ],
        "otherServices": [
          {
            "name": "Emissão de segunda via de cartão de débito",
            "code": "2_VIA_CARTAO_DEBITO",
            "chargingTriggerInfo": "Cobrança para emissão de segunda via do cartão de débito.",
            "prices": [
              {
                "interval": "1_FAIXA",
                "value": "15.00",
                "currency": "BRL",
                "customers": {
                  "rate": "0.250000"
                }
              },
              {
                "interval": "2_FAIXA",
                "value": "17.00",
                "currency": "BRL",
                "customers": {
                  "rate": "0.250000"
                }
              },
              {
                "interval": "3_FAIXA",
                "value": "19.00",
                "currency": "BRL",
                "customers": {
                  "rate": "0.250000"
                }
              },
              {
                "interval": "4_FAIXA",
                "value": "21.00",
                "currency": "BRL",
                "customers": {
                  "rate": "0.250000"
                }
              }
            ],
            "minimum": {
              "value": "12.00",
              "currency": "BRL"
            },
            "maximum": {
              "value": "25.00",
              "currency": "BRL"
            }
          }
        ]
      },
      "serviceBundles": [
        {
          "name": "Pacote Essencial Conta Corrente",
          "services": [
            {
              "code": "SAQUE_TERMINAL",
              "chargingTriggerInfo": "Saque em terminal de autoatendimento para conta corrente.",
              "eventLimitQuantity": "4",
              "freeEventQuantity": "4"
            }
          ],
          "prices": [
            {
              "interval": "1_FAIXA",
              "monthlyFee": "0.00",
              "currency": "BRL",
              "customers": {
                "rate": "0.250000"
              }
            },
            {
              "interval": "2_FAIXA",
              "monthlyFee": "0.00",
              "currency": "BRL",
              "customers": {
                "rate": "0.250000"
              }
            },
            {
              "interval": "3_FAIXA",
              "monthlyFee": "0.00",
              "currency": "BRL",
              "customers": {
                "rate": "0.250000"
              }
            },
            {
              "interval": "4_FAIXA",
              "monthlyFee": "0.00",
              "currency": "BRL",
              "customers": {
                "rate": "0.250000"
              }
            }
          ],
          "minimum": {
            "value": "0.00",
            "currency": "BRL"
          },
          "maximum": {
            "value": "0.00",
            "currency": "BRL"
          }
        }
      ],
      "openingClosingChannels": [
        "DEPENDENCIAS_PROPRIAS",
        "INTERNET_BANKING",
        "MOBILE_BANKING",
        "CENTRAL_TELEFONICA",
        "CHAT",
        "CORRESPONDENTES_BANCARIOS"
      ],
      "openingClosingChannelsAdditionalInfo": "Abertura e encerramento disponíveis em todos os canais.",
      "transactionMethods": [
        "MOVIMENTACAO_ELETRONICA",
        "MOVIMENTACAO_CHEQUE",
        "MOVIMENTACAO_CARTAO",
        "MOVIMENTACAO_PRESENCIAL"
      ],
      "termsConditions": {
        "minimumBalance": {
          "value": "0.00",
          "currency": "BRL"
        },
        "elegibilityCriteriaInfo": "Disponível para maiores de 18 anos com CPF válido e comprovante de residência.",
        "closingProcessInfo": "https://bancoexemplo.com.br/encerramento-conta-corrente"
      },
      "incomeRate": {
        "savingAccount": "Remuneração trimestral de 0,5% + TR conforme determinação legal vigente",
        "prepaidPaymentAccount": "2% Rendimento a.m."
      }
    },
    {
      "participant": {
        "brand": "Banco Exemplo",
        "name": "Banco Exemplo S.A.",
        "cnpjNumber": "12345678000190",
        "urlComplementaryList": "https://bancoexemplo.com.br/lista-complementar"
      },
      "type": "CONTA_POUPANCA",
      "fees": {
        "priorityServices": [
          {
            "name": "FORNECIMENTO_EXTRATO_MENSAL_CONTA_DEPOSITOS_A_VISTA_E_POUPANCA_PRESENCIAL_OU_PESSOAL",
            "code": "EXTRATO_MES_P",
            "chargingTriggerInfo": "Fornecimento de extrato mensal de conta poupança presencialmente.",
            "prices": [
              {
                "interval": "1_FAIXA",
                "value": "5.00",
                "currency": "BRL",
                "customers": {
                  "rate": "0.250000"
                }
              },
              {
                "interval": "2_FAIXA",
                "value": "6.00",
                "currency": "BRL",
                "customers": {
                  "rate": "0.250000"
                }
              },
              {
                "interval": "3_FAIXA",
                "value": "7.00",
                "currency": "BRL",
                "customers": {
                  "rate": "0.250000"
                }
              },
              {
                "interval": "4_FAIXA",
                "value": "8.00",
                "currency": "BRL",
                "customers": {
                  "rate": "0.250000"
                }
              }
            ],
            "minimum": {
              "value": "4.00",
              "currency": "BRL"
            },
            "maximum": {
              "value": "9.00",
              "currency": "BRL"
            }
          }
        ],
        "otherServices": [
          {
            "name": "Saque em Correspondente Bancário",
            "code": "SAQUE_CORRESPONDENTE",
            "chargingTriggerInfo": "Tarifa cobrada por saque realizado em correspondentes bancários.",
            "prices": [
              {
                "interval": "1_FAIXA",
                "value": "7.00",
                "currency": "BRL",
                "customers": {
                  "rate": "0.250000"
                }
              },
              {
                "interval": "2_FAIXA",
                "value": "8.00",
                "currency": "BRL",
                "customers": {
                  "rate": "0.250000"
                }
              },
              {
                "interval": "3_FAIXA",
                "value": "9.00",
                "currency": "BRL",
                "customers": {
                  "rate": "0.250000"
                }
              },
              {
                "interval": "4_FAIXA",
                "value": "10.00",
                "currency": "BRL",
                "customers": {
                  "rate": "0.250000"
                }
              }
            ],
            "minimum": {
              "value": "6.00",
              "currency": "BRL"
            },
            "maximum": {
              "value": "12.00",
              "currency": "BRL"
            }
          }
        ]
      },
      "serviceBundles": [
        {
          "name": "Pacote Essencial Poupança",
          "services": [
            {
              "code": "SAQUE_TERMINAL",
              "chargingTriggerInfo": "Saque em terminal de autoatendimento para conta poupança.",
              "eventLimitQuantity": "2",
              "freeEventQuantity": "2"
            }
          ],
          "prices": [
            {
              "interval": "1_FAIXA",
              "monthlyFee": "0.00",
              "currency": "BRL",
              "customers": {
                "rate": "0.250000"
              }
            },
            {
              "interval": "2_FAIXA",
              "monthlyFee": "0.00",
              "currency": "BRL",
              "customers": {
                "rate": "0.250000"
              }
            },
            {
              "interval": "3_FAIXA",
              "monthlyFee": "0.00",
              "currency": "BRL",
              "customers": {
                "rate": "0.250000"
              }
            },
            {
              "interval": "4_FAIXA",
              "monthlyFee": "0.00",
              "currency": "BRL",
              "customers": {
                "rate": "0.250000"
              }
            }
          ],
          "minimum": {
            "value": "0.00",
            "currency": "BRL"
          },
          "maximum": {
            "value": "0.00",
            "currency": "BRL"
          }
        }
      ],
      "openingClosingChannels": [
        "DEPENDENCIAS_PROPRIAS",
        "INTERNET_BANKING",
        "MOBILE_BANKING",
        "CENTRAL_TELEFONICA",
        "CHAT",
        "CORRESPONDENTES_BANCARIOS"
      ],
      "openingClosingChannelsAdditionalInfo": "Abertura e encerramento disponíveis em todos os canais, inclusive correspondentes bancários.",
      "transactionMethods": [
        "MOVIMENTACAO_ELETRONICA",
        "MOVIMENTACAO_CARTAO",
        "MOVIMENTACAO_PRESENCIAL"
      ],
      "termsConditions": {
        "minimumBalance": {
          "value": "50.00",
          "currency": "BRL"
        },
        "elegibilityCriteriaInfo": "Disponível para maiores de 16 anos com CPF válido.",
        "closingProcessInfo": "https://bancoexemplo.com.br/encerramento-conta-poupanca"
      },
      "incomeRate": {
        "savingAccount": "Remuneração mensal conforme regra: Se Selic > 8,5% a.a., 0,5% + TR; Se Selic <= 8,5% a.a., 70% da Selic/ano + TR.",
        "prepaidPaymentAccount": "2% Rendimento a.m."
      }
    },
    {
      "participant": {
        "brand": "Banco Exemplo",
        "name": "Banco Exemplo S.A.",
        "cnpjNumber": "12345678000190",
        "urlComplementaryList": "https://bancoexemplo.com.br/lista-complementar"
      },
      "type": "CONTA_PAGAMENTO_PRE_PAGA",
      "fees": {
        "priorityServices": [],
        "otherServices": [
          {
            "name": "Recarga de Celular",
            "code": "RECARGA_CELULAR",
            "chargingTriggerInfo": "Cobrança por serviço de recarga de celular.",
            "prices": [
              {
                "interval": "1_FAIXA",
                "value": "1.00",
                "currency": "BRL",
                "customers": {
                  "rate": "0.250000"
                }
              },
              {
                "interval": "2_FAIXA",
                "value": "1.20",
                "currency": "BRL",
                "customers": {
                  "rate": "0.250000"
                }
              },
              {
                "interval": "3_FAIXA",
                "value": "1.40",
                "currency": "BRL",
                "customers": {
                  "rate": "0.250000"
                }
              },
              {
                "interval": "4_FAIXA",
                "value": "1.60",
                "currency": "BRL",
                "customers": {
                  "rate": "0.250000"
                }
              }
            ],
            "minimum": {
              "value": "0.80",
              "currency": "BRL"
            },
            "maximum": {
              "value": "2.00",
              "currency": "BRL"
            }
          }
        ]
      },
      "serviceBundles": [],
      "openingClosingChannels": [
        "INTERNET_BANKING",
        "MOBILE_BANKING",
        "CHAT"
      ],
      "openingClosingChannelsAdditionalInfo": "Abertura e encerramento exclusivamente digitais: Internet Banking, Mobile Banking e Chat.",
      "transactionMethods": [
        "MOVIMENTACAO_ELETRONICA",
        "MOVIMENTACAO_CARTAO"
      ],
      "termsConditions": {
        "minimumBalance": {
          "value": "0.00",
          "currency": "BRL"
        },
        "elegibilityCriteriaInfo": "Disponível para maiores de 16 anos com CPF válido e e-mail.",
        "closingProcessInfo": "https://bancoexemplo.com.br/encerramento-conta-pre-paga"
      },
      "incomeRate": {
        "savingAccount": "Remuneração mensal conforme regra: Se Selic > 8,5% a.a., 0,5% + TR; Se Selic <= 8,5% a.a., 70% da Selic/ano + TR.",
        "prepaidPaymentAccount": "5% Rendimento a.m. sobre o saldo."
      }
    }
  ],
  "links": {
    "self": "https://api.bancoexemplo.com.br/open-banking/opendata-accounts/v1/personal-accounts",
    "first": "https://api.bancoexemplo.com.br/open-banking/opendata-accounts/v1/personal-accounts?page=1&page-size=25",
    "next": "https://api.bancoexemplo.com.br/open-banking/opendata-accounts/v1/personal-accounts?page=2&page-size=25",
    "last": "https://api.bancoexemplo.com.br/open-banking/opendata-accounts/v1/personal-accounts?page=5&page-size=25"
  },
  "meta": {
    "totalRecords": 50,
    "totalPages": 5
  }
}
